{
  "$schema": "https://turborepo.org/schema.json",
  "pipeline": {
    "build": {
      "dependsOn": ["^build"],
      "outputs": ["dist/**", ".next/**", "types/**"]
    },
    "test": {
      "dependsOn": ["^build"],
      "outputs": ["coverage/**"]
    },
    "lint": {
      "outputs": []
    },
    "dev": {
      "cache": false
    }
  }
}
